{
	"info": {
		"_postman_id": "f1cc3a2b-7ff3-44d2-a8fe-0a639e190118",
		"name": "BandTech",
		"schema": "https://schema.getpostman.com/json/collection/v2.1.0/collection.json",
		"_exporter_id": "23713105"
	},
	"item": [
		{
			"name": "Auth",
			"item": [
				{
					"name": "Register",
					"request": {
						"method": "POST",
						"header": [
							{
								"key": "Accept",
								"value": "application/json",
								"type": "text"
							}
						],
						"body": {
							"mode": "formdata",
							"formdata": [
								{
									"key": "name",
									"value": "obada",
									"type": "text"
								},
								{
									"key": "username",
									"value": "obada",
									"type": "text"
								},
								{
									"key": "password",
									"value": "12345678",
									"type": "text"
								},
								{
									"key": "type",
									"value": "",
									"type": "text",
									"disabled": true
								}
							]
						},
						"url": {
							"raw": "{{local}}/register",
							"host": [
								"{{local}}"
							],
							"path": [
								"register"
							]
						}
					},
					"response": []
				},
				{
					"name": "Login",
					"request": {
						"method": "POST",
						"header": [
							{
								"key": "Accept",
								"value": "application/json",
								"type": "text"
							}
						],
						"body": {
							"mode": "formdata",
							"formdata": [
								{
									"key": "username",
									"value": "obada",
									"type": "text"
								},
								{
									"key": "password",
									"value": "12345678",
									"type": "text"
								}
							]
						},
						"url": {
							"raw": "{{local}}/login",
							"host": [
								"{{local}}"
							],
							"path": [
								"login"
							]
						}
					},
					"response": []
				}
			]
		},
		{
			"name": "User",
			"item": [
				{
					"name": "Create",
					"request": {
						"method": "POST",
						"header": [
							{
								"key": "Accept",
								"value": "application/json",
								"type": "text"
							}
						],
						"body": {
							"mode": "formdata",
							"formdata": [
								{
									"key": "name",
									"value": "obada",
									"type": "text"
								},
								{
									"key": "username",
									"value": "obada",
									"type": "text"
								},
								{
									"key": "password",
									"value": "12345678",
									"type": "text"
								},
								{
									"key": "type",
									"value": "silver",
									"type": "text"
								},
								{
									"key": "avatar",
									"type": "file",
									"src": "/C:/Users/obada/Downloads/Telegram Desktop/image_2024-03-16_02-33-56.png",
									"disabled": true
								}
							]
						},
						"url": {
							"raw": "{{local}}/users/create",
							"host": [
								"{{local}}"
							],
							"path": [
								"users",
								"create"
							]
						}
					},
					"response": []
				},
				{
					"name": "delete",
					"request": {
						"method": "DELETE",
						"header": [
							{
								"key": "Accept",
								"value": "application/json",
								"type": "text"
							}
						],
						"url": {
							"raw": "{{local}}/users/delete/7",
							"host": [
								"{{local}}"
							],
							"path": [
								"users",
								"delete",
								"7"
							]
						}
					},
					"response": []
				},
				{
					"name": "update",
					"request": {
						"method": "PUT",
						"header": [
							{
								"key": "Accept",
								"value": "application/json",
								"type": "text"
							}
						],
						"body": {
							"mode": "urlencoded",
							"urlencoded": [
								{
									"key": "type",
									"value": "gold",
									"type": "text"
								},
								{
									"key": "username",
									"value": "khaled",
									"type": "text",
									"disabled": true
								}
							]
						},
						"url": {
							"raw": "{{local}}/users/update/1",
							"host": [
								"{{local}}"
							],
							"path": [
								"users",
								"update",
								"1"
							]
						}
					},
					"response": []
				},
				{
					"name": "getAll",
					"request": {
						"method": "GET",
						"header": [
							{
								"key": "Accept",
								"value": "application/json",
								"type": "text"
							}
						],
						"url": {
							"raw": "{{local}}/users",
							"host": [
								"{{local}}"
							],
							"path": [
								"users"
							]
						}
					},
					"response": []
				},
				{
					"name": "getById",
					"request": {
						"method": "GET",
						"header": [
							{
								"key": "Accept",
								"value": "application/json",
								"type": "text"
							}
						],
						"url": {
							"raw": "{{local}}/users/4",
							"host": [
								"{{local}}"
							],
							"path": [
								"users",
								"4"
							]
						}
					},
					"response": []
				}
			]
		},
		{
			"name": "Product",
			"item": [
				{
					"name": "create",
					"request": {
						"method": "POST",
						"header": [
							{
								"key": "Accept",
								"value": "application/json",
								"type": "text"
							}
						],
						"body": {
							"mode": "formdata",
							"formdata": [
								{
									"key": "name",
									"value": "chair",
									"type": "text"
								},
								{
									"key": "description",
									"value": "brown",
									"type": "text"
								},
								{
									"key": "price",
									"value": "22.22",
									"type": "text"
								},
								{
									"key": "slug",
									"value": "furniture",
									"type": "text"
								},
								{
									"key": "image",
									"type": "file",
									"src": []
								}
							]
						},
						"url": {
							"raw": "{{local}}/products/create",
							"host": [
								"{{local}}"
							],
							"path": [
								"products",
								"create"
							]
						}
					},
					"response": []
				},
				{
					"name": "delete",
					"request": {
						"method": "DELETE",
						"header": [
							{
								"key": "Accept",
								"value": "application/json",
								"type": "text"
							}
						],
						"url": {
							"raw": "{{local}}/products/delete/9",
							"host": [
								"{{local}}"
							],
							"path": [
								"products",
								"delete",
								"9"
							]
						}
					},
					"response": []
				},
				{
					"name": "update",
					"request": {
						"method": "PUT",
						"header": [
							{
								"key": "Accept",
								"value": "application/json",
								"type": "text"
							}
						],
						"body": {
							"mode": "urlencoded",
							"urlencoded": [
								{
									"key": "name",
									"value": "table",
									"type": "text"
								}
							]
						},
						"url": {
							"raw": "{{local}}/products/update/2",
							"host": [
								"{{local}}"
							],
							"path": [
								"products",
								"update",
								"2"
							]
						}
					},
					"response": []
				},
				{
					"name": "getAll",
					"request": {
						"method": "GET",
						"header": [
							{
								"key": "Accept",
								"value": "application/json",
								"type": "text"
							}
						],
						"url": {
							"raw": "{{local}}/products",
							"host": [
								"{{local}}"
							],
							"path": [
								"products"
							]
						}
					},
					"response": []
				},
				{
					"name": "getById",
					"request": {
						"method": "GET",
						"header": [
							{
								"key": "Accept",
								"value": "application/json",
								"type": "text"
							}
						],
						"url": {
							"raw": "{{local}}/products/2",
							"host": [
								"{{local}}"
							],
							"path": [
								"products",
								"2"
							]
						}
					},
					"response": []
				},
				{
					"name": "priceAccordingToType",
					"request": {
						"method": "GET",
						"header": [
							{
								"key": "Accept",
								"value": "application/json",
								"type": "text"
							}
						],
						"url": {
							"raw": "{{local}}/products/price/2/1",
							"host": [
								"{{local}}"
							],
							"path": [
								"products",
								"price",
								"2",
								"1"
							]
						}
					},
					"response": []
				}
			]
		}
	]
}